ej1/sumador.vcd
$date
	Mon May 10 20:34:11 2021
$end
$version
	Icarus Verilog
$end
$timescale
	1ps
$end
$scope module top $end
$var wire 1 ! \$1 $end
$var wire 1 " \$11 $end
$var wire 1 # \$13 $end
$var wire 1 $ \$17 $end
$var wire 1 % \$19 $end
$var wire 1 & \$21 $end
$var wire 1 ' \$23 $end
$var wire 1 ( \$25 $end
$var wire 1 ) \$27 $end
$var wire 1 * \$3 $end
$var wire 1 + \$5 $end
$var wire 1 , \$7 $end
$var wire 1 - \$9 $end
$var wire 8 . a__data [7:0] $end
$var wire 1 / a__ready $end
$var wire 1 0 a__valid $end
$var wire 8 1 b__data [7:0] $end
$var wire 1 2 b__ready $end
$var wire 1 3 b__valid $end
$var wire 1 4 clk $end
$var wire 1 5 r__ready $end
$var wire 1 6 rst $end
$var wire 9 7 \$15 [8:0] $end
$var reg 1 8 initial $end
$var reg 9 9 r__data [8:0] $end
$var reg 9 : \r__data$next [8:0] $end
$var reg 1 ; r__valid $end
$var reg 1 < \r__valid$next $end
$upscope $end
$enddefinitions $end
#0
$dumpvars
0<
0;
b0 :
b0 9
08
bx 7
16
z5
14
z3
12
bz 1
z0
1/
bz .
x-
x,
x+
x*
1)
0(
1'
1&
0%
1$
x#
x"
0!
$end
#5000
04
#10000
b111000000 :
1<
1#
1,
1-
1*
1"
1+
06
10
b111000000 7
b10100001 .
13
b11111 1
15
14
#15000
04
#20000
b1001110 :
b1000001 .
b1001110 7
b1101 1
1<
1(
0'
1%
1!
0$
b111000000 9
1;
14
#25000
04
#30000
b101000 :
b10111001 .
b101000 7
b1101111 1
b1001110 9
14
#35000
04
#40000
b110111110 :
b10111101 .
b110111110 7
b1 1
b101000 9
14
#45000
04
#50000
b10000001 :
b11011 .
b10000001 7
b1100110 1
b110111110 9
14
#55000
04
#60000
b10000 :
b1001011 .
b10000 7
b11000101 1
b10000001 9
14
#65000
04
#70000
b111111 :
b111100 .
b111111 7
b11 1
b10000 9
14
#75000
04
#80000
b10111 :
b110110 .
b10111 7
b11100001 1
b111111 9
14
#85000
04
#90000
b1110001 :
b100 .
b1110001 7
b1101101 1
b10111 9
14
#95000
04
#100000
b101000010 :
b10001100 .
b101000010 7
b10110110 1
b1110001 9
14
#105000
04
#110000
b111100000 :
b11011100 .
b111100000 7
b100 1
b101000010 9
14
#115000
04
#120000
b111101100 :
b10110100 .
b111101100 7
b111000 1
b111100000 9
14
#125000
04
#130000
b101111000 :
b10001101 .
b101111000 7
b11101011 1
b111101100 9
14
#135000
04
#140000
b101010 :
b101100 .
b101010 7
b11111110 1
b101111000 9
14
#145000
04
#150000
b101110101 :
b11001111 .
b101110101 7
b10100110 1
b101010 9
14
#155000
04
#160000
b10000100 :
b10111 .
b10000100 7
b1101101 1
b101110101 9
14
#165000
04
#170000
b110001110 :
b10111110 .
b110001110 7
b11010000 1
b10000100 9
14
#175000
04
#180000
b110000001 :
b11011011 .
b110000001 7
b10100110 1
b110001110 9
14
#185000
04
#190000
b1010000 :
b1111101 .
b1010000 7
b11010011 1
b110000001 9
14
#195000
04
#200000
b111110011 :
b111 .
b111110011 7
b11101100 1
b1010000 9
14
#205000
04
#210000
b10101101 :
b1010001 .
b10101101 7
b1011100 1
b111110011 9
14
#215000
04
#220000
b101001 :
b11001011 .
b101001 7
b1011110 1
b10101101 9
14
#225000
04
#230000
b110000000 :
b10010010 .
b110000000 7
b11101110 1
b101001 9
14
#235000
04
#240000
b110010 :
b1000001 .
b110010 7
b11110001 1
b110000000 9
14
#245000
04
#250000
b110 :
b10001101 .
b110 7
b1111001 1
b110010 9
14
#255000
04
#260000
b1111000 :
b1001011 .
b1111000 7
b101101 1
b110 9
14
#265000
04
#270000
b10100101 :
b1000010 .
b10100101 7
b1100011 1
b1111000 9
14
#275000
04
#280000
b1000010 :
b11110111 .
b1000010 7
b1001011 1
b10100101 9
14
#285000
04
#290000
b1000111 :
b101101 .
b1000111 7
b11010 1
b1000010 9
14
#295000
04
#300000
b1011111 :
b11100111 .
b1011111 7
b1111000 1
b1000111 9
14
#305000
04
#310000
b1100 :
b1011100 .
b1100 7
b10110000 1
b1011111 9
14
#315000
04
#320000
b111000101 :
b1001 .
b111000101 7
b10111100 1
b1100 9
14
#325000
04
#330000
b110000111 :
b10100010 .
b110000111 7
b11100101 1
b111000101 9
14
#335000
04
#340000
b111100010 :
b11101000 .
b111100010 7
b11111010 1
b110000111 9
14
#345000
04
#350000
b11001101 :
b1011111 .
b11001101 7
b1101110 1
b111100010 9
14
#355000
04
#360000
b11001000 :
b1111010 .
b11001000 7
b1001110 1
b11001101 9
14
#365000
04
#370000
b111010100 :
b11110010 .
b111010100 7
b11100010 1
b11001000 9
14
#375000
04
#380000
b11001 :
b111 .
b11001 7
b10010 1
b111010100 9
14
#385000
04
#390000
b101101101 :
b11100011 .
b101101101 7
b10001010 1
b11001 9
14
#395000
04
#400000
b111100100 :
b10111000 .
b111100100 7
b101100 1
b101101101 9
14
#405000
04
#410000
b10110 :
b11001010 .
b10110 7
b1001100 1
b111100100 9
14
#415000
04
#420000
b11101100 :
b1110010 .
b11101100 7
b1111010 1
b10110 9
14
#425000
04
#430000
b110100101 :
b11100 .
b110100101 7
b10001001 1
b11101100 9
14
#435000
04
#440000
b110010101 :
b100 .
b110010101 7
b10010001 1
b110100101 9
14
#445000
04
#450000
b11010 :
b11010 .
b11010 7
b0 1
b110010101 9
14
#455000
04
#460000
b10100001 :
b1110010 .
b10100001 7
b101111 1
b11010 9
14
#465000
04
#470000
b110010101 :
b11110110 .
b110010101 7
b10011111 1
b10100001 9
14
#475000
04
#480000
b1110001 :
b1000100 .
b1110001 7
b101101 1
b110010101 9
14
#485000
04
#490000
b111001001 :
b10000010 .
b111001001 7
b1000111 1
b1110001 9
14
#495000
04
#500000
b111011010 :
b101111 .
b111011010 7
b10101011 1
b111001001 9
14
#505000
04
#510000
b1001101 :
b1 .
b1001101 7
b1001100 1
b111011010 9
14
#515000
04
#520000
b1001000 :
b111101 .
b1001000 7
b1011 1
b1001101 9
14
#525000
04
#530000
b10110 :
b1010110 .
b10110 7
b11000000 1
b1001000 9
14
#535000
04
#540000
b101010011 :
b101010011 7
b10010011 .
b10110 9
14
#545000
04
#550000
b10010 :
b1111001 .
b10010 7
b10011001 1
b101010011 9
14
#555000
04
#560000
b111001010 :
b11010001 .
b111001010 7
b11111001 1
b10010 9
14
#565000
04
#570000
b10011110 :
b1110000 .
b10011110 7
b101110 1
b111001010 9
14
#575000
04
#580000
b10010000 :
b110011 .
b10010000 7
b1011101 1
b10011110 9
14
#585000
04
#590000
b1011001 :
b1101000 .
b1011001 7
b11110001 1
b10010000 9
14
#595000
04
#600000
b111111000 :
b100000 .
b111111000 7
b11011000 1
b1011001 9
14
#605000
04
#610000
b111001110 :
b1010 .
b111001110 7
b11000100 1
b111111000 9
14
#615000
04
#620000
b101011101 :
b10111111 .
b101011101 7
b10011110 1
b111001110 9
14
#625000
04
#630000
b101101100 :
b11001111 .
b101101100 7
b10011101 1
b101011101 9
14
#635000
04
#640000
b110111001 :
b11110101 .
b110111001 7
b11000100 1
b101101100 9
14
#645000
04
#650000
b111001000 :
b10110000 .
b111001000 7
b11000 1
b110111001 9
14
#655000
04
#660000
b110 :
b110001 .
b110 7
b11010101 1
b111001000 9
14
#665000
04
#670000
b101000101 :
b10000101 .
b101000101 7
b11000000 1
b110 9
14
#675000
04
#680000
b10111 :
b10000 .
b10111 7
b111 1
b101000101 9
14
#685000
04
#690000
b100111010 :
b10101111 .
b100111010 7
b10001011 1
b10111 9
14
#695000
04
#700000
b111101100 :
b110011 .
b111101100 7
b10111001 1
b100111010 9
14
#705000
04
#710000
b10011000 :
b100000 .
b10011000 7
b1111000 1
b111101100 9
14
#715000
04
#720000
b110101111 :
b10001 .
b110101111 7
b10011110 1
b10011000 9
14
#725000
04
#730000
b110100100 :
b11001010 .
b110100100 7
b11011010 1
b110101111 9
14
#735000
04
#740000
b1001 :
b11101 .
b1001 7
b11101100 1
b110100100 9
14
#745000
04
#750000
b1011010 :
b1111111 .
b1011010 7
b11011011 1
b1001 9
14
#755000
04
#760000
b110 :
b11100100 .
b110 7
b100010 1
b1011010 9
14
#765000
04
#770000
b110111100 :
b11000101 .
b110111100 7
b11110111 1
b110 9
14
#775000
04
#780000
b10111 :
b101001 .
b10111 7
b11101110 1
b110111100 9
14
#785000
04
#790000
b101110011 :
b11100100 .
b101110011 7
b10001111 1
b10111 9
14
#795000
04
#800000
b1110110 :
b1100 .
b1110110 7
b1101010 1
b101110011 9
14
#805000
04
#810000
b10001111 :
b1010110 .
b10001111 7
b111001 1
b1110110 9
14
#815000
04
#820000
b1111 :
b11011101 .
b1111 7
b110010 1
b10001111 9
14
#825000
04
#830000
b111011011 :
b1010110 .
b111011011 7
b10000101 1
b1111 9
14
#835000
04
#840000
b1001100 :
b1011011 .
b1001100 7
b11110001 1
b111011011 9
14
#845000
04
#850000
b110011101 :
b11100001 .
b110011101 7
b10111100 1
b1001100 9
14
#855000
04
#860000
b1010001 :
b1111111 .
b1010001 7
b11010010 1
b110011101 9
14
#865000
04
#870000
b11010 :
b10111000 .
b11010 7
b1100010 1
b1010001 9
14
#875000
04
#880000
b101001 :
b11000110 .
b101001 7
b1100011 1
b11010 9
14
#885000
04
#890000
b11000010 :
b1001011 .
b11000010 7
b1110111 1
b101001 9
14
#895000
04
#900000
b1011000 :
b1010 .
b1011000 7
b1001110 1
b11000010 9
14
#905000
04
#910000
b110110000 :
b11010001 .
b110110000 7
b11011111 1
b1011000 9
14
#915000
04
#920000
b111001110 :
b11010101 .
b111001110 7
b11111001 1
b110110000 9
14
#925000
04
#930000
b11111 :
b10111000 .
b11111 7
b1100111 1
b111001110 9
14
#935000
04
#940000
b10000 :
b1001101 .
b10000 7
b11000011 1
b11111 9
14
#945000
04
#950000
b10100001 :
b111100 .
b10100001 7
b1100101 1
b10000 9
14
#955000
04
#960000
b110101101 :
b10000101 .
b110101101 7
b101000 1
b10100001 9
14
#965000
04
#970000
b1001110 :
b11011000 .
b1001110 7
b1110110 1
b110101101 9
14
#975000
04
#980000
b111110101 :
b101111 .
b111110101 7
b11000110 1
b1001110 9
14
#985000
04
#990000
b1100001 :
b11100110 .
b1100001 7
b1111011 1
b111110101 9
14
#995000
04
#1000000
b1110011 :
b11110101 .
b1110011 7
b1111110 1
b1100001 9
14
#1005000
04
#1010000
0<
0#
0,
0-
0*
0"
0+
00
03
b1110011 9
14
#1015000
04
#1020000
0(
1'
0%
0!
1$
0;
14
#1020001
b0 :
16
#1025001
04
#1030001
b0 9
14
#1035001
04
#1040001
b100000000 :
1<
1#
1,
1-
1*
1"
1+
06
10
b10000000 .
13
b100000000 7
b10000000 1
14
#1045001
04
#1050001
0#
0,
0-
0*
0"
0+
00
03
0<
1(
0'
1%
1!
0$
1;
b100000000 9
14
#1055001
04
#1060001
b0 :
1<
1#
1,
1-
1*
1"
1+
10
b0 .
13
b0 7
b0 1
0(
1'
0%
0!
1$
0;
14
#1065001
04
#1070001
0#
0,
0-
0*
0"
0+
00
03
0<
1(
0'
1%
1!
0$
1;
b0 9
14
#1075001
04
#1080001
1<
1#
1,
1-
1*
1"
1+
10
b10000001 .
13
b0 7
b1111111 1
0(
1'
0%
0!
1$
0;
14
#1085001
04
#1090001
0#
0,
0-
0*
0"
0+
00
03
0<
1(
0'
1%
1!
0$
1;
14
#1095001
04
#1100001
0(
1'
0%
0!
1$
0;
14
